{
  "language": "python",
  "app": "/opt/venv/bin/python3 ./main.py",
  "projectId": "d5358fe6-ad92-4248-b684-5f831de96bff",
  "terraformProviders": [
    "gavinbunney/kubectl@~> 1.13.1",
    "kubernetes@~> 2.8.0"
  ],
  "terraformModules": [],
  "codeMakerOutput": "imports",
  "context": {
    "excludeStackIdFromLogicalIds": "true",
"allowSepCharsInLogicalIds": "true"
  }
}
